…
1-7

# Make a grid of explanatory data
explanatory_data <- expand_grid(
  # Set n_convenience to zero to ten
 n_convenience = seq(0, 10),
  # Set house_age_years to the unique values of that variable
  house_age_years = unique(taiwan_real_estate$house_age_years)
)

# See the result
explanatory_data

## # A tibble: 33 x 2
##    n_convenience house_age_years
##            <int> <chr>          
##  1             0 30 to 45       
##  2             0 15 to 30       
##  3             0 0 to 15        
##  4             1 30 to 45       
##  5             1 15 to 30       
##  6             1 0 to 15        
##  7             2 30 to 45       
##  8             2 15 to 30       
##  9             2 0 to 15        
## 10             3 30 to 45       
## # ... with 23 more rows

# Add predictions to the data frame
prediction_data <- explanatory_data %>% 
  mutate(prediction_data=predict(
mdl_price_vs_both, explanatory_data
)
  
  )

# See the result
prediction_data

## # A tibble: 33 x 3
##    n_convenience house_age_years prediction_data
##            <int> <chr>                     <dbl>
##  1             0 30 to 45                   7.51
##  2             0 15 to 30                   7.09
##  3             0 0 to 15                    9.41
##  4             1 30 to 45                   8.30
##  5             1 15 to 30                   7.88
##  6             1 0 to 15                   10.2 
##  7             2 30 to 45                   9.09
##  8             2 15 to 30                   8.67
##  9             2 0 to 15                   11.0 
## 10             3 30 to 45                   9.89
## # ... with 23 more rows
…
# See the results
prediction_data

## # A tibble: 33 x 4
##    n_convenience house_age_years intercept price_twd_msq
##            <int> <chr>               <dbl>         <dbl>
##  1             0 30 to 45            0.791         0.791
##  2             0 15 to 30            7.51          7.51 
##  3             0 0 to 15             7.09          7.09 
##  4             1 30 to 45            0.791        10.2  
##  5             1 15 to 30            7.51         16.9  
##  6             1 0 to 15             7.09         16.5  
##  7             2 30 to 45            0.791        19.6  
##  8             2 15 to 30            7.51         26.3  
##  9             2 0 to 15             7.09         25.9  
## 10             3 30 to 45            0.791        29.0  
## # ... with 23 more rows
…
