Assignment A02: TIDYVERSE // Ramin Ala
…
One table verbs

filter(): Extract rows that satisfy specified conditions.

Here, I want to create a new dataset (stroke_suffered) from those who experienced a stroke.

library(dplyr)

stroke_suffered <- stroke_predic %>%
  filter(stroke==1)

 stroke_suffered

## # A tibble: 249 x 12
##       id gender   age hypertension heart_disease ever_married work_type    
##    <dbl> <chr>  <dbl>        <dbl>         <dbl> <chr>        <chr>        
##  1  9046 Male      67            0             1 Yes          Private      
##  2 51676 Female    61            0             0 Yes          Self-employed
##  3 31112 Male      80            0             1 Yes          Private      
##  4 60182 Female    49            0             0 Yes          Private      
##  5  1665 Female    79            1             0 Yes          Self-employed
##  6 56669 Male      81            0             0 Yes          Private      
##  7 53882 Male      74            1             1 Yes          Private      
##  8 10434 Female    69            0             0 No           Private      
##  9 27419 Female    59            0             0 Yes          Private      
## 10 60491 Female    78            0             0 Yes          Private      
## # ... with 239 more rows, and 5 more variables: Residence_type <chr>,
## #   avg_glucose_level <dbl>, bmi <chr>, smoking_status <chr>, stroke <dbl>
…
Vector function

between(): determine if values in a numeric vector fall in specified range.

By using combination of between() and filter() function, I filtered those who have avg_glucose_level between 250 to 300.

stroke_predic %>%
  filter(between(avg_glucose_level,250,300))

## # A tibble: 25 x 12
##       id gender   age hypertension heart_disease ever_married work_type    
##    <dbl> <chr>  <dbl>        <dbl>         <dbl> <chr>        <chr>        
##  1 54401 Male      80            0             1 Yes          Self-employed
##  2 13491 Male      80            0             0 Yes          Private      
##  3 71279 Female    71            0             0 Yes          Govt_job     
##  4 69112 Male      68            1             1 Yes          Private      
##  5 20463 Male      81            1             1 Yes          Private      
##  6 63732 Male      70            1             0 Yes          Self-employed
##  7 33585 Female    64            0             0 Yes          Private      
##  8 17813 Female    69            0             1 Yes          Private      
##  9 55862 Male      67            1             1 Yes          Private      
## 10 38678 Female    66            0             0 Yes          Self-employed
## # ... with 15 more rows, and 5 more variables: Residence_type <chr>,
## #   avg_glucose_level <dbl>, bmi <chr>, smoking_status <chr>, stroke <dbl>
…
Pivoting

pivot_wider(): “widens” data, increasing the number of columns and decreasing the number of rows.

Here, I selected three columns and age group between to 50 before applying pivot function. Number of rows decrease from 1468 to 21

library(tidyr)

 selected_data<- stroke_predic %>%
 select(age, gender,stroke)  %>%
   filter(between(age,30,50))
   
   selected_data

## # A tibble: 1,468 x 3
##      age gender stroke
##    <dbl> <chr>   <dbl>
##  1    49 Female      1
##  2    50 Female      1
##  3    42 Male        1
##  4    48 Male        1
##  5    49 Female      1
##  6    39 Female      1
##  7    45 Female      1
##  8    43 Male        1
##  9    47 Male        1
## 10    45 Male        1
## # ... with 1,458 more rows

  DS_pivot_wider <- selected_data %>%
    pivot_wider(names_from = stroke, values_from = gender)

DS_pivot_wider

## # A tibble: 21 x 3
##      age `1`       `0`       
##    <dbl> <list>    <list>    
##  1    49 <chr [3]> <chr [76]>
##  2    50 <chr [3]> <chr [80]>
##  3    42 <chr [1]> <chr [70]>
##  4    48 <chr [2]> <chr [64]>
##  5    39 <chr [3]> <chr [68]>
##  6    45 <chr [3]> <chr [82]>
##  7    43 <chr [1]> <chr [69]>
##  8    47 <chr [1]> <chr [74]>
##  9    38 <chr [2]> <chr [70]>
## 10    46 <chr [1]> <chr [61]>
## # ... with 11 more rows
…
## [1] 5110

  nrow(stroke_predic_drop_NA)

## [1] 5109

fill(): Fill N/A objects with “up” or "down object.

hhh <- stroke_predic_with_NA %>%  
  fill(age, .direction=c("up"))  #fill with below value

hhh

## # A tibble: 5,110 x 12
##       id gender   age hypertension heart_disease ever_married work_type    
##    <dbl> <chr>  <dbl>        <dbl>         <dbl> <chr>        <chr>        
##  1  9046 Male      61            0             1 Yes          Private      
##  2 51676 Female    61            0             0 Yes          Self-employed
##  3 31112 Male      80            0             1 Yes          Private      
##  4 60182 Female    49            0             0 Yes          Private      
##  5  1665 Female    79            1             0 Yes          Self-employed
##  6 56669 Male      81            0             0 Yes          Private      
##  7 53882 Male      74            1             1 Yes          Private      
##  8 10434 Female    69            0             0 No           Private      
##  9 27419 Female    59            0             0 Yes          Private      
## 10 60491 Female    78            0             0 Yes          Private      
## # ... with 5,100 more rows, and 5 more variables: Residence_type <chr>,
## #   avg_glucose_level <dbl>, bmi <chr>, smoking_status <chr>, stroke <dbl>
…
