…
Before you can evaluate model performance, you must add your predictions to the test dataset.

In this exercise, you will use your trained model, lm_fit, to predict selling_price in the home_test dataset.

Your trained model, lm_fit, as well as the test dataset, home_test have been loaded into your session.

# Predict selling_price
home_predictions <- predict(lm_fit,
                        new_data = home_test)

# View predicted selling prices
home_predictions

## # A tibble: 450 x 1
##      .pred
##      <dbl>
##  1 474505.
##  2 488362.
##  3 402843.
##  4 507927.
##  5 449388.
##  6 534012.
##  7 426894.
##  8 458630.
##  9 405985.
## 10 404378.
## # ... with 440 more rows

# Combine test data with predictions
home_test_results <- home_test %>% 
  select(selling_price, home_age, sqft_living) %>% 
  bind_cols(home_predictions)

# View results
home_test_results

## # A tibble: 450 x 4
##    selling_price home_age sqft_living   .pred
##            <dbl>    <dbl>       <dbl>   <dbl>
##  1        380000       24        2130 474505.
##  2        464950       19        2190 488362.
##  3        356000       24        1430 402843.
##  4        495000        3        2140 507927.
##  5        552321       29        1960 449388.
##  6        485000        6        2440 534012.
##  7        381000       25        1680 426894.
##  8        450000       25        1990 458630.
##  9        398000       14        1310 405985.
## 10        389999       24        1445 404378.
## # ... with 440 more rows

1-10 Model performance metrics

Evaluating model results is an important step in the modeling process. Model evaluation should be done on the test dataset in order to see how well a model will generalize to new datasets.

In the previous exercise, you trained a linear regression model to predict selling_price using home_age and sqft_living as predictor variables. You then created the home_test_results tibble using your trained model on the home_test data.

In this exercise, you will calculate the RMSE and R squared metrics using your results in home_test_results.

# Print home_test_results
home_test_results

## # A tibble: 450 x 4
##    selling_price home_age sqft_living   .pred
##            <dbl>    <dbl>       <dbl>   <dbl>
##  1        380000       24        2130 474505.
##  2        464950       19        2190 488362.
##  3        356000       24        1430 402843.
##  4        495000        3        2140 507927.
##  5        552321       29        1960 449388.
##  6        485000        6        2440 534012.
##  7        381000       25        1680 426894.
##  8        450000       25        1990 458630.
##  9        398000       14        1310 405985.
## 10        389999       24        1445 404378.
## # ... with 440 more rows
…
# Define a linear regression model
linear_model <- linear_reg() %>% 
  set_engine('lm') %>% 
  set_mode('regression')

# Train linear_model with last_fit()
linear_fit <- linear_model %>% 
  last_fit(selling_price ~ ., split = home_split)

# Collect predictions and view results
predictions_df <- linear_fit %>% collect_predictions()
predictions_df

## # A tibble: 450 x 5
##    id                 .pred  .row selling_price .config             
##    <chr>              <dbl> <int>         <dbl> <chr>               
##  1 train/test split 413013.     5        380000 Preprocessor1_Model1
##  2 train/test split 475169.     8        464950 Preprocessor1_Model1
##  3 train/test split 441999.    11        356000 Preprocessor1_Model1
##  4 train/test split 479184.    12        495000 Preprocessor1_Model1
##  5 train/test split 465349.    15        552321 Preprocessor1_Model1
##  6 train/test split 559623.    17        485000 Preprocessor1_Model1
##  7 train/test split 393424.    18        381000 Preprocessor1_Model1
##  8 train/test split 474725.    21        450000 Preprocessor1_Model1
##  9 train/test split 382127.    24        398000 Preprocessor1_Model1
## 10 train/test split 396010.    25        389999 Preprocessor1_Model1
## # ... with 440 more rows
…
# Obtain estimated probabilities for each outcome value
prob_preds <- predict(logistic_fit, new_data = telecom_test, 
                      type = 'prob')

# Combine test set results
telecom_results <- telecom_test %>% 
  select(canceled_service) %>% 
  bind_cols(class_preds, prob_preds)

# View results tibble
telecom_results

## # A tibble: 244 x 4
##    canceled_service .pred_class .pred_no .pred_yes
##    <chr>            <fct>          <dbl>     <dbl>
##  1 no               no             0.889    0.111 
##  2 yes              yes            0.474    0.526 
##  3 no               no             0.600    0.400 
##  4 no               no             0.840    0.160 
##  5 yes              yes            0.491    0.509 
##  6 yes              yes            0.404    0.596 
##  7 no               no             0.622    0.378 
##  8 no               no             0.904    0.0962
##  9 no               no             0.676    0.324 
## 10 no               no             0.620    0.380 
## # ... with 234 more rows
…
ROC curves are used to visualize the performance of a classification model across a range of probability thresholds. An ROC curve with the majority of points near the upper left corner of the plot indicates that a classification model is able to correctly predict both the positive and negative outcomes correctly across a wide range of probability thresholds.

The area under this curve provides a letter grade summary of model performance.

In this exercise, you will create an ROC curve from your logistic regression model results and calculate the area under the ROC curve with yardstick.

# Calculate metrics across thresholds
threshold_df <- telecom_results %>% 
  roc_curve(truth = factor(canceled_service) , .pred_yes)

# View results
threshold_df

## # A tibble: 246 x 3
##    .threshold specificity sensitivity
##         <dbl>       <dbl>       <dbl>
##  1  -Inf                0       1    
##  2     0.0396           0       1    
##  3     0.0437           0       0.994
##  4     0.0500           0       0.988
##  5     0.0529           0       0.981
##  6     0.0546           0       0.975
##  7     0.0584           0       0.969
##  8     0.0596           0       0.963
##  9     0.0783           0       0.957
## 10     0.0821           0       0.951
## # ... with 236 more rows
…
2-14 Collecting predictions and creating custom metrics

Using the last_fit() modeling workflow also saves time in collecting model predictions. Instead of manually creating a tibble of model results, there are helper functions that extract this information automatically.

In this exercise, you will use your trained model, telecom_last_fit, to create a tibble of model results on the test dataset as well as calculate custom performance metrics.

# Collect predictions
last_fit_results <- telecom_last_fit %>% 
  collect_predictions()

# View results
last_fit_results

## # A tibble: 244 x 7
##    id        .pred_no .pred_yes  .row .pred_class `factor(canceled_s~ .config   
##    <chr>        <dbl>     <dbl> <int> <fct>       <fct>               <chr>     
##  1 train/te~    0.889    0.111      8 no          no                  Preproces~
##  2 train/te~    0.474    0.526      9 yes         yes                 Preproces~
##  3 train/te~    0.600    0.400     15 no          no                  Preproces~
##  4 train/te~    0.840    0.160     27 no          no                  Preproces~
##  5 train/te~    0.491    0.509     31 yes         yes                 Preproces~
##  6 train/te~    0.404    0.596     34 yes         yes                 Preproces~
##  7 train/te~    0.622    0.378     39 no          no                  Preproces~
##  8 train/te~    0.904    0.0962    40 no          no                  Preproces~
##  9 train/te~    0.676    0.324     42 no          no                  Preproces~
## 10 train/te~    0.620    0.380     48 no          no                  Preproces~
## # ... with 234 more rows
…
