Assignment A03: Tidyverse // Ramin Ala
…
              R
              data_wrangling
              Assignment

Using lego_sales.csv file, complete the following tasks using tidyverse. Submit the RmD file and link to the post on your website.

1- What are the three most common first names of customers?

lego %>%
    select(first_name) %>%
    count(first_name) %>%
    arrange(desc(n))

## # A tibble: 211 x 2
##    first_name     n
##    <chr>      <int>
##  1 Jackson       13
##  2 Jacob         11
##  3 Joseph        11
##  4 Michael       10
##  5 Audrey         8
##  6 Connor         8
##  7 Kaitlyn        8
##  8 Lucas          8
##  9 Amanda         7
## 10 Joshua         7
## # ... with 201 more rows

answer: 1-Jackson (13) 2,3- Jacob (11) , Joseph (11) are three most popular first names.

2- What are the three most common themes of lego sets purchased?

lego %>%
    select(theme) %>%
    count(theme) %>%
    arrange(desc(n))

## # A tibble: 25 x 2
##    theme            n
##    <chr>        <int>
##  1 Star Wars       75
##  2 Nexo Knights    64
##  3 Gear            55
##  4 Mixels          55
##  5 City            45
##  6 Friends         42
##  7 Ninjago         38
##  8 Duplo           35
##  9 Bionicle        34
## 10 Creator         25
## # ... with 15 more rows

answer: 1-Star Wars (75) 2- Nexo Knights (64) 3- Gear & Mixels (55-tie) are common themes of lego sets purchased.

3- Among the most common theme of lego sets purchased, what is the most common subtheme?

lego %>%
    select(theme, subtheme) %>%
    filter(theme=="Star Wars" |
           theme=="Nexo Knights" |
           theme=="Gear" |
           theme=="Mixels") %>%
    count(subtheme) %>%
    arrange(desc(n))

## # A tibble: 30 x 2
##    subtheme              n
##    <chr>             <int>
##  1 <NA>                 42
##  2 Ultimate             22
##  3 Series 9             21
##  4 Series 7             18
##  5 Series 8             16
##  6 The Force Awakens    15
##  7 Buildable Figures    11
##  8 Episode V            10
##  9 MicroFighters        10
## 10 Battlefront           7
## # ... with 20 more rows
…
lego_age_group <- lego %>%
    mutate(age_group=case_when(
        age <= 18 ~ "18 and under" ,
        between(age, 19, 25) ~ "19 - 25" ,
        between(age, 26, 35) ~ "26 - 35" ,
        between(age, 36, 50) ~ "36 - 50" ,
        age >= 51 ~ "51 and over" ,
    ))

# To represent result:
lego_age_group %>%
    select(first_name, age ,age_group)

## # A tibble: 620 x 3
##    first_name   age age_group
##    <chr>      <dbl> <chr>    
##  1 Kimberly      24 19 - 25  
##  2 Neel          35 26 - 35  
##  3 Neel          35 26 - 35  
##  4 Chelsea       41 36 - 50  
##  5 Chelsea       41 36 - 50  
##  6 Chelsea       41 36 - 50  
##  7 Bryanna       19 19 - 25  
##  8 Bryanna       19 19 - 25  
##  9 Caleb         37 36 - 50  
## 10 Caleb         37 36 - 50  
## # ... with 610 more rows
…
