…
Correlation, Covariance

These are measures of assosiation.

Regression Model

Simple and Multiple Linear Regression

A linear model is generated using lm() function. Seven variables passes to model and intercept defined as zero. As result, coefficients calculated

MLR <- lm(price~ .+0, data=diamonds)
summary(MLR)  %>%
  tidy()

## # A tibble: 34 x 5
##    term    estimate std.error statistic   p.value
##    <chr>      <dbl>     <dbl>     <dbl>     <dbl>
##  1 carat      4205.      51.3     82.0  1.02e-254
##  2 colourD   -1433.     147.      -9.77 2.25e- 20
##  3 colourE   -1624.     144.     -11.3  6.40e- 26
##  4 colourF   -1744.     140.     -12.5  2.13e- 30
##  5 colourG   -1734.     143.     -12.1  5.96e- 29
##  6 colourH   -1863.     141.     -13.2  2.26e- 33
##  7 colourI   -1934.     142.     -13.6  6.09e- 35
##  8 colourJ   -2068.     146.     -14.2  2.44e- 37
##  9 colourK   -2419.     151.     -16.1  2.52e- 45
## 10 colourL   -2606.     156.     -16.7  5.37e- 48
## # ... with 24 more rows
…
