…
## 'data.frame':    380 obs. of  4 variables:
##  $ country            : chr  "Finland" "France" "Italy" "Norway" ...
##  $ year               : int  1980 1980 1980 1980 1980 1980 1980 1980 1981 1981 ...
##  $ hourly_compensation: num  8.61 8.9 8.09 11.8 5.86 ...
##  $ working_hours      : num  35.6 35.4 35.7 30.4 36.8 ...

# Group and summarize the data
ilo_data %>%
  group_by(year) %>%
  summarize(mean_hourly_compensation = mean(hourly_compensation),
            mean_working_hours = mean(working_hours))

## # A tibble: 27 x 3
##     year mean_hourly_compensation mean_working_hours
##    <int>                    <dbl>              <dbl>
##  1  1980                     9.27               34.0
##  2  1981                     8.69               33.6
##  3  1982                     8.36               33.5
##  4  1983                     7.81               33.9
##  5  1984                     7.54               33.7
##  6  1985                     7.79               33.7
##  7  1986                     9.70               34.0
##  8  1987                    12.1                33.6
##  9  1988                    13.2                33.7
## 10  1989                    13.1                33.5
## # ... with 17 more rows
…
