…
2-2 Predicting house prices

you specify values for each of the explanatory variables, feed them to the model, and you get a prediction for the corresponding response variable. The code flow is as follows:

explanatory_data <- tibble(
explanatory_var = some_values
)
explanatory_data %>%
mutate(
response_var = predict(model, explanatory_data)
)

taiwan_real_estate

## # A tibble: 414 x 5
##       X1 dist_to_mrt_m n_convenience house_age_years price_twd_msq
##    <dbl>         <dbl>         <dbl> <chr>                   <dbl>
##  1     1          84.9            10 30 to 45                11.5 
##  2     2         307.              9 15 to 30                12.8 
##  3     3         562.              5 0 to 15                 14.3 
##  4     4         562.              5 0 to 15                 16.6 
##  5     5         391.              5 0 to 15                 13.0 
##  6     6        2175.              3 0 to 15                  9.71
##  7     7         623.              7 30 to 45                12.2 
##  8     8         288.              6 15 to 30                14.1 
##  9     9        5512.              1 30 to 45                 5.69
## 10    10        1783.              3 15 to 30                 6.69
## # ... with 404 more rows
…
The functions in broom are generic. That is, they work with many model types, not just linear regression model objects. They also work with logistic regression model objects (as you’ll see in Chapter 4), and many other types of model.

# Get the coefficient-level elements of the model
tidy(mdl_price_vs_conv)

## # A tibble: 2 x 5
##   term          estimate std.error statistic   p.value
##   <chr>            <dbl>     <dbl>     <dbl>     <dbl>
## 1 (Intercept)      8.22     0.285       28.9 5.81e-101
## 2 n_convenience    0.798    0.0565      14.1 3.41e- 37

# Get the observation-level elements of the model
augment(mdl_price_vs_conv)

## # A tibble: 414 x 8
##    price_twd_msq n_convenience .fitted .resid    .hat .sigma  .cooksd .std.resid
##            <dbl>         <dbl>   <dbl>  <dbl>   <dbl>  <dbl>    <dbl>      <dbl>
##  1         11.5             10   16.2  -4.74  0.0121    3.38  1.22e-2     -1.41 
##  2         12.8              9   15.4  -2.64  0.00913   3.39  2.83e-3     -0.783
##  3         14.3              5   12.2   2.10  0.00264   3.39  5.10e-4      0.621
##  4         16.6              5   12.2   4.37  0.00264   3.38  2.21e-3      1.29 
##  5         13.0              5   12.2   0.826 0.00264   3.39  7.92e-5      0.244
##  6          9.71             3   10.6  -0.906 0.00275   3.39  9.91e-5     -0.268
##  7         12.2              7   13.8  -1.62  0.00477   3.39  5.50e-4     -0.479
##  8         14.1              6   13.0   1.12  0.00343   3.39  1.88e-4      0.331
##  9          5.69             1    9.02 -3.33  0.00509   3.38  2.49e-3     -0.988
## 10          6.69             3   10.6  -3.93  0.00275   3.38  1.87e-3     -1.16 
## # ... with 404 more rows
…
