…
Now that you’ve summarized the dataset by country, you can start examining it and answering interesting questions.

For example, you might be especially interested in the countries that voted “yes” least often, or the ones that voted “yes” most often.

# You have the votes summarized by country
by_country <- votes_processed %>%
  group_by(country) %>%
  summarize(total = n(),
            percent_yes = mean(vote == 1))

# Print the by_country dataset
print(by_country)

## # A tibble: 200 x 3
##    country           total percent_yes
##    <chr>             <int>       <dbl>
##  1 Afghanistan        2373       0.859
##  2 Albania            1695       0.717
##  3 Algeria            2213       0.899
##  4 Andorra             719       0.638
##  5 Angola             1431       0.924
##  6 Antigua & Barbuda  1302       0.912
##  7 Argentina          2553       0.768
##  8 Armenia             758       0.747
##  9 Australia          2575       0.557
## 10 Austria            2389       0.622
## # ... with 190 more rows

# Sort in ascending order of percent_yes
by_country %>% arrange(percent_yes)

## # A tibble: 200 x 3
##    country                          total percent_yes
##    <chr>                            <int>       <dbl>
##  1 Zanzibar                             2       0    
##  2 United States                     2568       0.269
##  3 Palau                              369       0.339
##  4 Israel                            2380       0.341
##  5 <NA>                              1075       0.397
##  6 United Kingdom                    2558       0.417
##  7 France                            2527       0.427
##  8 Micronesia (Federated States of)   724       0.442
##  9 Marshall Islands                   757       0.491
## 10 Belgium                           2568       0.492
## # ... with 190 more rows

# Now sort in descending order
by_country %>% arrange(desc(percent_yes))

## # A tibble: 200 x 3
##    country              total percent_yes
##    <chr>                <int>       <dbl>
##  1 São Tomé & Príncipe   1091       0.976
##  2 Seychelles             881       0.975
##  3 Djibouti              1598       0.961
##  4 Guinea-Bissau         1538       0.960
##  5 Timor-Leste            326       0.957
##  6 Mauritius             1831       0.950
##  7 Zimbabwe              1361       0.949
##  8 Comoros               1133       0.947
##  9 United Arab Emirates  1934       0.947
## 10 Mozambique            1701       0.947
## # ... with 190 more rows

1-11 Filtering summarized output

In the last exercise, you may have noticed that the country that voted least frequently, Zanzibar, had only 2 votes in the entire dataset. You certainly can’t make any substantial conclusions based on that data!

Typically in a progressive analysis, when you find that a few of your observations have very little data while others have plenty, you set some threshold to filter them out.

# Filter out countries with fewer than 100 votes
by_country %>%
  arrange(percent_yes) %>%
  filter(total>100)

## # A tibble: 197 x 3
##    country                          total percent_yes
##    <chr>                            <int>       <dbl>
##  1 United States                     2568       0.269
##  2 Palau                              369       0.339
##  3 Israel                            2380       0.341
##  4 <NA>                              1075       0.397
##  5 United Kingdom                    2558       0.417
##  6 France                            2527       0.427
##  7 Micronesia (Federated States of)   724       0.442
##  8 Marshall Islands                   757       0.491
##  9 Belgium                           2568       0.492
## 10 Canada                            2576       0.508
## # ... with 187 more rows
…
<img src="{{< blogdown/postref >}}index_files/figure-html/unnamed-chunk-13-1.png" width="672" />
## 3-9 Nesting a data frame

Right now, the by_year_country data frame has one row per country-vote pair. So that you can model each country individually, you’re going to “nest” all columns besides country, which will result in a data frame with one row per country. The data for each individual country will then be stored in a list column called data.

# Nest all columns besides country
by_year_country %>%
nest(-country)

## Warning: All elements of `...` must be named.
## Did you want `data = c(year, total, percent_yes)`?

## # A tibble: 200 x 2
##    country     data                 
##    <chr>       <list>               
##  1 Afghanistan <grouped_df [34 x 3]>
##  2 Argentina   <grouped_df [34 x 3]>
##  3 Australia   <grouped_df [34 x 3]>
##  4 Belarus     <grouped_df [34 x 3]>
##  5 Belgium     <grouped_df [34 x 3]>
##  6 Bolivia     <grouped_df [34 x 3]>
##  7 Brazil      <grouped_df [34 x 3]>
##  8 Canada      <grouped_df [34 x 3]>
##  9 Chile       <grouped_df [34 x 3]>
## 10 Colombia    <grouped_df [34 x 3]>
## # ... with 190 more rows
…
# All countries are nested besides country
nested <- by_year_country %>%
  nest(-country)

## Warning: All elements of `...` must be named.
## Did you want `data = c(year, total, percent_yes)`?

# Print the nested data for Brazil
print(nested$data[7])

## [[1]]
## # A tibble: 34 x 3
## # Groups:   year [34]
##     year total percent_yes
##    <dbl> <int>       <dbl>
##  1  1947    38       0.658
##  2  1949    64       0.469
##  3  1951    25       0.64 
##  4  1953    26       0.731
##  5  1955    37       0.730
##  6  1957    34       0.735
##  7  1959    54       0.537
##  8  1961    76       0.553
##  9  1963    32       0.781
## 10  1965    41       0.610
## # ... with 24 more rows
…
# All countries are nested besides country
nested <- by_year_country %>%
  nest(-country)

## Warning: All elements of `...` must be named.
## Did you want `data = c(year, total, percent_yes)`?

# Unnest the data column to return it to its original form
nested %>%
unnest()

## Warning: `cols` is now required when using unnest().
## Please use `cols = c(data)`

## # A tibble: 4,744 x 4
##    country      year total percent_yes
##    <chr>       <dbl> <int>       <dbl>
##  1 Afghanistan  1947    34       0.382
##  2 Afghanistan  1949    51       0.608
##  3 Afghanistan  1951    25       0.76 
##  4 Afghanistan  1953    26       0.769
##  5 Afghanistan  1955    37       0.730
##  6 Afghanistan  1957    34       0.529
##  7 Afghanistan  1959    54       0.611
##  8 Afghanistan  1961    76       0.605
##  9 Afghanistan  1963    32       0.781
## 10 Afghanistan  1965    40       0.85 
## # ... with 4,734 more rows
…
map(numbers, ~ 1 + .)
This means that to fit a model to each dataset, you can do:

map(data, ~ lm(percent_yes ~ year, data = .))
where . represents each individual item from the data column in by_year_country. Recall that each item in the data column is a dataset that pertains to a specific country.

# Perform a linear regression on each item in the data column
by_year_country %>%
  nest(-country) %>%
  mutate(model=map(data,~ lm(percent_yes ~ year,  .)))

## Warning: All elements of `...` must be named.
## Did you want `data = c(year, total, percent_yes)`?

## # A tibble: 200 x 3
##    country     data                  model 
##    <chr>       <list>                <list>
##  1 Afghanistan <grouped_df [34 x 3]> <lm>  
##  2 Argentina   <grouped_df [34 x 3]> <lm>  
##  3 Australia   <grouped_df [34 x 3]> <lm>  
##  4 Belarus     <grouped_df [34 x 3]> <lm>  
##  5 Belgium     <grouped_df [34 x 3]> <lm>  
##  6 Bolivia     <grouped_df [34 x 3]> <lm>  
##  7 Brazil      <grouped_df [34 x 3]> <lm>  
##  8 Canada      <grouped_df [34 x 3]> <lm>  
##  9 Chile       <grouped_df [34 x 3]> <lm>  
## 10 Colombia    <grouped_df [34 x 3]> <lm>  
## # ... with 190 more rows
…
Recall that you can simply give a function to map() (e.g. map(models, tidy)) in order to apply that function to each item of a list.

# Load the broom package
library(broom)

# Add another mutate that applies tidy() to each model
by_year_country %>%
  nest(-country) %>%
  mutate(model = map(data, ~ lm(percent_yes ~ year, data = .)),
         tidied = map(model, tidy))

## Warning: All elements of `...` must be named.
## Did you want `data = c(year, total, percent_yes)`?

## # A tibble: 200 x 4
##    country     data                  model  tidied          
##    <chr>       <list>                <list> <list>          
##  1 Afghanistan <grouped_df [34 x 3]> <lm>   <tibble [2 x 5]>
##  2 Argentina   <grouped_df [34 x 3]> <lm>   <tibble [2 x 5]>
##  3 Australia   <grouped_df [34 x 3]> <lm>   <tibble [2 x 5]>
##  4 Belarus     <grouped_df [34 x 3]> <lm>   <tibble [2 x 5]>
##  5 Belgium     <grouped_df [34 x 3]> <lm>   <tibble [2 x 5]>
##  6 Bolivia     <grouped_df [34 x 3]> <lm>   <tibble [2 x 5]>
##  7 Brazil      <grouped_df [34 x 3]> <lm>   <tibble [2 x 5]>
##  8 Canada      <grouped_df [34 x 3]> <lm>   <tibble [2 x 5]>
##  9 Chile       <grouped_df [34 x 3]> <lm>   <tibble [2 x 5]>
## 10 Colombia    <grouped_df [34 x 3]> <lm>   <tibble [2 x 5]>
## # ... with 190 more rows
…
# Add one more step that unnests the tidied column
country_coefficients <- by_year_country %>%
  nest(-country) %>%
  mutate(model = map(data, ~ lm(percent_yes ~ year, data = .)),
         tidied = map(model, tidy)) %>%
  unnest(tidied)

## Warning: All elements of `...` must be named.
## Did you want `data = c(year, total, percent_yes)`?

# Print the resulting country_coefficients variable
country_coefficients

## # A tibble: 400 x 8
##    country   data          model  term    estimate std.error statistic   p.value
##    <chr>     <list>        <list> <chr>      <dbl>     <dbl>     <dbl>     <dbl>
##  1 Afghanis~ <grouped_df ~ <lm>   (Inter~ -1.11e+1  1.47         -7.52   1.44e-8
##  2 Afghanis~ <grouped_df ~ <lm>   year     6.01e-3  0.000743      8.09   3.06e-9
##  3 Argentina <grouped_df ~ <lm>   (Inter~ -9.46e+0  2.10         -4.50   8.32e-5
##  4 Argentina <grouped_df ~ <lm>   year     5.15e-3  0.00106       4.85   3.05e-5
##  5 Australia <grouped_df ~ <lm>   (Inter~ -4.55e+0  2.15         -2.12   4.22e-2
##  6 Australia <grouped_df ~ <lm>   year     2.57e-3  0.00108       2.37   2.42e-2
##  7 Belarus   <grouped_df ~ <lm>   (Inter~ -7.00e+0  1.50         -4.66   5.33e-5
##  8 Belarus   <grouped_df ~ <lm>   year     3.91e-3  0.000759      5.15   1.28e-5
##  9 Belgium   <grouped_df ~ <lm>   (Inter~ -5.85e+0  1.52         -3.86   5.22e-4
## 10 Belgium   <grouped_df ~ <lm>   year     3.20e-3  0.000765      4.19   2.07e-4
## # ... with 390 more rows

3-17 Filtering model terms

You currently have both the intercept and slope terms for each by-country model. You’re probably more interested in how each is changing over time, so you want to focus on the slope terms.

# Print the country_coefficients dataset
print(country_coefficients)

## # A tibble: 400 x 8
##    country   data          model  term    estimate std.error statistic   p.value
##    <chr>     <list>        <list> <chr>      <dbl>     <dbl>     <dbl>     <dbl>
##  1 Afghanis~ <grouped_df ~ <lm>   (Inter~ -1.11e+1  1.47         -7.52   1.44e-8
##  2 Afghanis~ <grouped_df ~ <lm>   year     6.01e-3  0.000743      8.09   3.06e-9
##  3 Argentina <grouped_df ~ <lm>   (Inter~ -9.46e+0  2.10         -4.50   8.32e-5
##  4 Argentina <grouped_df ~ <lm>   year     5.15e-3  0.00106       4.85   3.05e-5
##  5 Australia <grouped_df ~ <lm>   (Inter~ -4.55e+0  2.15         -2.12   4.22e-2
##  6 Australia <grouped_df ~ <lm>   year     2.57e-3  0.00108       2.37   2.42e-2
##  7 Belarus   <grouped_df ~ <lm>   (Inter~ -7.00e+0  1.50         -4.66   5.33e-5
##  8 Belarus   <grouped_df ~ <lm>   year     3.91e-3  0.000759      5.15   1.28e-5
##  9 Belgium   <grouped_df ~ <lm>   (Inter~ -5.85e+0  1.52         -3.86   5.22e-4
## 10 Belgium   <grouped_df ~ <lm>   year     3.20e-3  0.000765      4.19   2.07e-4
## # ... with 390 more rows

# Filter for only the slope terms
country_coefficients %>%
filter(term == "year")

## # A tibble: 200 x 8
##    country    data           model term  estimate std.error statistic    p.value
##    <chr>      <list>         <lis> <chr>    <dbl>     <dbl>     <dbl>      <dbl>
##  1 Afghanist~ <grouped_df [~ <lm>  year   0.00601  0.000743      8.09    3.06e-9
##  2 Argentina  <grouped_df [~ <lm>  year   0.00515  0.00106       4.85    3.05e-5
##  3 Australia  <grouped_df [~ <lm>  year   0.00257  0.00108       2.37    2.42e-2
##  4 Belarus    <grouped_df [~ <lm>  year   0.00391  0.000759      5.15    1.28e-5
##  5 Belgium    <grouped_df [~ <lm>  year   0.00320  0.000765      4.19    2.07e-4
##  6 Bolivia    <grouped_df [~ <lm>  year   0.00580  0.000966      6.01    1.06e-6
##  7 Brazil     <grouped_df [~ <lm>  year   0.00611  0.000817      7.48    1.64e-8
##  8 Canada     <grouped_df [~ <lm>  year   0.00152  0.000955      1.59    1.22e-1
##  9 Chile      <grouped_df [~ <lm>  year   0.00678  0.000822      8.24    2.05e-9
## 10 Colombia   <grouped_df [~ <lm>  year   0.00616  0.000965      6.38    3.58e-7
## # ... with 190 more rows
…
However, when you have lots of p-values, like one for each country, you run into the problem of multiple hypothesis testing, where you have to set a stricter threshold. The p.adjust() function is a simple way to correct for this, where p.adjust(p.value) on a vector of p-values returns a set that you can trust.

Here you’ll add two steps to process the slope_terms dataset: use a mutate to create the new, adjusted p-value column, and filter to filter for those below a .05 threshold.

# Filter for only the slope terms
slope_terms <- country_coefficients %>%
  filter(term == "year")

# Add p.adjusted column, then filter
slope_terms %>%
  mutate(p.adjusted = p.adjust(p.value)) %>%
  filter(p.adjusted < .05)

## # A tibble: 61 x 9
##    country  data     model term  estimate std.error statistic p.value p.adjusted
##    <chr>    <list>   <lis> <chr>    <dbl>     <dbl>     <dbl>   <dbl>      <dbl>
##  1 Afghani~ <groupe~ <lm>  year   0.00601  0.000743      8.09 3.06e-9    5.95e-7
##  2 Argenti~ <groupe~ <lm>  year   0.00515  0.00106       4.85 3.05e-5    4.81e-3
##  3 Belarus  <groupe~ <lm>  year   0.00391  0.000759      5.15 1.28e-5    2.08e-3
##  4 Belgium  <groupe~ <lm>  year   0.00320  0.000765      4.19 2.07e-4    3.01e-2
##  5 Bolivia  <groupe~ <lm>  year   0.00580  0.000966      6.01 1.06e-6    1.88e-4
##  6 Brazil   <groupe~ <lm>  year   0.00611  0.000817      7.48 1.64e-8    3.12e-6
##  7 Chile    <groupe~ <lm>  year   0.00678  0.000822      8.24 2.05e-9    3.99e-7
##  8 Colombia <groupe~ <lm>  year   0.00616  0.000965      6.38 3.58e-7    6.56e-5
##  9 Costa R~ <groupe~ <lm>  year   0.00654  0.000812      8.05 3.39e-9    6.54e-7
## 10 Cuba     <groupe~ <lm>  year   0.00461  0.000721      6.40 3.43e-7    6.31e-5
## # ... with 51 more rows
3-19 Sorting by slope

Now that you’ve filtered for countries where the trend is probably not due to chance, you may be interested in countries whose percentage of “yes” votes is changing most quickly over time. Thus, you want to find the countries with the highest and lowest slopes; that is, the estimate column.

# Filter by adjusted p-values
filtered_countries <- country_coefficients %>%
  filter(term == "year") %>%
  mutate(p.adjusted = p.adjust(p.value)) %>%
  filter(p.adjusted < .05)

# Sort for the countries increasing most quickly
filtered_countries %>%
  arrange(desc(estimate))

## # A tibble: 61 x 9
##    country   data   model term  estimate std.error statistic  p.value p.adjusted
##    <chr>     <list> <lis> <chr>    <dbl>     <dbl>     <dbl>    <dbl>      <dbl>
##  1 South Af~ <grou~ <lm>  year   0.0119   0.00140       8.47 1.60e- 8    3.05e-6
##  2 Kazakhst~ <grou~ <lm>  year   0.0110   0.00195       5.62 3.24e- 4    4.51e-2
##  3 Yemen Ar~ <grou~ <lm>  year   0.0109   0.00159       6.84 1.20e- 6    2.11e-4
##  4 Kyrgyzst~ <grou~ <lm>  year   0.00973  0.000988      9.84 2.38e- 5    3.78e-3
##  5 Malawi    <grou~ <lm>  year   0.00908  0.00181       5.02 4.48e- 5    7.03e-3
##  6 Dominica~ <grou~ <lm>  year   0.00806  0.000914      8.81 5.96e-10    1.17e-7
##  7 Portugal  <grou~ <lm>  year   0.00802  0.00171       4.68 7.13e- 5    1.10e-2
##  8 Honduras  <grou~ <lm>  year   0.00772  0.000921      8.38 1.43e- 9    2.81e-7
##  9 Peru      <grou~ <lm>  year   0.00730  0.000976      7.48 1.65e- 8    3.12e-6
## 10 Nicaragua <grou~ <lm>  year   0.00708  0.00107       6.60 1.92e- 7    3.55e-5
## # ... with 51 more rows

# Sort for the countries decreasing most quickly
filtered_countries %>%
  arrange(estimate)

## # A tibble: 61 x 9
##    country   data    model term  estimate std.error statistic p.value p.adjusted
##    <chr>     <list>  <lis> <chr>    <dbl>     <dbl>     <dbl>   <dbl>      <dbl>
##  1 South Ko~ <group~ <lm>  year  -0.00921  0.00155      -5.96 1.39e-4  0.0209   
##  2 Israel    <group~ <lm>  year  -0.00685  0.00117      -5.85 1.89e-6  0.000331 
##  3 United S~ <group~ <lm>  year  -0.00624  0.000928     -6.72 1.37e-7  0.0000254
##  4 Belgium   <group~ <lm>  year   0.00320  0.000765      4.19 2.07e-4  0.0301   
##  5 Guinea    <group~ <lm>  year   0.00362  0.000833      4.35 1.87e-4  0.0275   
##  6 Morocco   <group~ <lm>  year   0.00380  0.000860      4.42 1.46e-4  0.0218   
##  7 Belarus   <group~ <lm>  year   0.00391  0.000759      5.15 1.28e-5  0.00208  
##  8 Iran      <group~ <lm>  year   0.00391  0.000856      4.57 6.91e-5  0.0107   
##  9 Congo - ~ <group~ <lm>  year   0.00397  0.000922      4.30 2.27e-4  0.0326   
## 10 Sudan     <group~ <lm>  year   0.00399  0.000961      4.15 2.98e-4  0.0420   
## # ... with 51 more rows
…
