…
fullmodel_perf <- gap_fullmodel %>% 
  # Extract the fit statistics of each model into dataframes
  mutate(fit = map(model, ~glance(.x))) %>% 
  # Simplify the fit dataframes for each model
  unnest(fit)
  
# View the performance for the four countries with the worst fitting 
# four simple models you looked at before
fullmodel_perf %>% 
  filter(country %in% worst_fit$country) %>% 
  select(country, adj.r.squared)

## # A tibble: 77 x 2
## # Groups:   country [77]
##    country    adj.r.squared
##    <chr>              <dbl>
##  1 Algeria            0.999
##  2 Argentina          0.999
##  3 Australia          0.994
##  4 Austria            0.996
##  5 Bangladesh         0.981
##  6 Belgium            0.996
##  7 Benin              0.996
##  8 Bolivia            0.999
##  9 Botswana           0.844
## 10 Brazil             0.999
## # ... with 67 more rows
…
