…
1-2 Familiarizing with disease data

The dataset containing disease cases from the World Health Organization (WHO) is loaded into your environment as the dataframe who_disease.

In order to familiarize yourself with the data, let’s start by printing it to the console.

Once you’ve investigated it a bit, make a simple bar chart of the number of observations by region using the supplied code. You will need to fill in the aes()thetics function to map the x-axis to the proper column name.

This course touches on a lot of concepts you may have forgotten, so if you ever need a quick refresher, download the Tidyverse Cheat Sheet and keep it handy!

# print dataframe to inspect
print(who_disease)

## # A tibble: 43,262 x 7
##       X1 region countryCode country             disease  year cases
##    <dbl> <chr>  <chr>       <chr>               <chr>   <dbl> <dbl>
##  1     1 EMR    AFG         Afghanistan         measles  2016   638
##  2     2 EUR    ALB         Albania             measles  2016    17
##  3     3 AFR    DZA         Algeria             measles  2016    41
##  4     4 EUR    AND         Andorra             measles  2016     0
##  5     5 AFR    AGO         Angola              measles  2016    53
##  6     6 AMR    ATG         Antigua and Barbuda measles  2016     0
##  7     7 AMR    ARG         Argentina           measles  2016     0
##  8     8 EUR    ARM         Armenia             measles  2016     2
##  9     9 WPR    AUS         Australia           measles  2016    99
## 10    10 EUR    AUT         Austria             measles  2016    27
## # ... with 43,252 more rows
…
