…
## # A tibble: 6 x 3
##   variable n_miss pct_miss
##   <chr>     <int>    <dbl>
## 1 Ozone        37    24.2 
## 2 Solar.R       7     4.58
## 3 Wind          0     0   
## 4 Temp          0     0   
## 5 Month         0     0   
## 6 Day           0     0

# Summarize missingness in each case of the `airquality` dataset
miss_case_summary(airquality)

## # A tibble: 153 x 3
##     case n_miss pct_miss
##    <int>  <int>    <dbl>
##  1     5      2     33.3
##  2    27      2     33.3
##  3     6      1     16.7
##  4    10      1     16.7
##  5    11      1     16.7
##  6    25      1     16.7
##  7    26      1     16.7
##  8    32      1     16.7
##  9    33      1     16.7
## 10    34      1     16.7
## # ... with 143 more rows

# Return the summary of missingness in each variable, 
# grouped by Month, in the `airquality` dataset
airquality %>% group_by(Month) %>% miss_var_summary()

## # A tibble: 25 x 4
## # Groups:   Month [5]
##    Month variable n_miss pct_miss
##    <int> <chr>     <int>    <dbl>
##  1     5 Ozone         5     16.1
##  2     5 Solar.R       4     12.9
##  3     5 Wind          0      0  
##  4     5 Temp          0      0  
##  5     5 Day           0      0  
##  6     6 Ozone        21     70  
##  7     6 Solar.R       0      0  
##  8     6 Wind          0      0  
##  9     6 Temp          0      0  
## 10     6 Day           0      0  
## # ... with 15 more rows

# Return the summary of missingness in each case, 
# grouped by Month, in the `airquality` dataset
airquality %>% group_by(Month) %>% miss_case_summary()

## # A tibble: 153 x 4
## # Groups:   Month [5]
##    Month  case n_miss pct_miss
##    <int> <int>  <int>    <dbl>
##  1     5     5      2       40
##  2     5    27      2       40
##  3     5     6      1       20
##  4     5    10      1       20
##  5     5    11      1       20
##  6     5    25      1       20
##  7     5    26      1       20
##  8     5     1      0        0
##  9     5     2      0        0
## 10     5     3      0        0
## # ... with 143 more rows
…
1-8 Other summaries of missingness

Some summaries of missingness are particularly useful for different types of data. For example, miss_var_span() and miss_var_run().

miss_var_span() calculates the number of missing values in a specified variable for a repeating span. This is really useful in time series data, to look for weekly (7 day) patterns of missingness.

miss_var_run() calculates the number of “runs” or “streaks” of missingness. This is useful to find unusual patterns of missingness, for example, you might find a repeating pattern of 5 complete and 5 missings.

Both miss_var_span() and miss_var_run() work with the group_by operator from dplyr.

# Calculate the summaries for each run of missingness for the variable, hourly_counts
miss_var_run(pedestrian, var = hourly_counts)

## # A tibble: 35 x 2
##    run_length is_na   
##         <int> <chr>   
##  1       6628 complete
##  2          1 missing 
##  3       5250 complete
##  4        624 missing 
##  5       3652 complete
##  6          1 missing 
##  7       1290 complete
##  8        744 missing 
##  9       7420 complete
## 10          1 missing 
## # ... with 25 more rows
…
# For each `month` variable, calculate the run of missingness for hourly_counts
pedestrian %>% group_by(month) %>% miss_var_run(var = hourly_counts)

## # A tibble: 51 x 3
## # Groups:   month [12]
##    month    run_length is_na   
##    <ord>         <int> <chr>   
##  1 January        2976 complete
##  2 February       2784 complete
##  3 March          2976 complete
##  4 April           888 complete
##  5 April           552 missing 
##  6 April          1440 complete
##  7 May             744 complete
##  8 May              72 missing 
##  9 May            2160 complete
## 10 June           2880 complete
## # ... with 41 more rows

# For each `month` variable, calculate the span of missingness 
# of a span of 2000, for the variable hourly_counts
pedestrian %>% group_by(month) %>% miss_var_span(var = hourly_counts, span_every = 2000)

## # A tibble: 25 x 7
## # Groups:   month [12]
##    month    span_counter n_miss n_complete prop_miss prop_complete n_in_span
##    <ord>           <int>  <int>      <int>     <dbl>         <dbl>     <int>
##  1 January             1      0       2000     0             1          2000
##  2 January             2      0        976     0             1           976
##  3 February            1      0       2000     0             1          2000
##  4 February            2      0        784     0             1           784
##  5 March               1      0       2000     0             1          2000
##  6 March               2      0        976     0             1           976
##  7 April               1    552       1448     0.276         0.724      2000
##  8 April               2      0        880     0             1           880
##  9 May                 1     72       1928     0.036         0.964      2000
## 10 May                 2      0        976     0             1           976
## # ... with 15 more rows
…
